679474 219964
529914 756026
181538 753222
845919 236507
871254 326258
401731 132923
463989 366607
52042 746530
459274 389191
510504 949059
857942 767030
697660 147426
840125 948587
540640 808474
707616 792554
563394 196429
174357 960470
321495 441746
525896 886534
436305 179881
717977 723709
987098 383508
372912 299038
152323 12920
924911 9611
486995 343521
339532 189988
529395 692855
490118 73233
568581 796978
770680 821994
704206 560600
990501 396543
558209 714073
629439 8244
241912 833960
347560 249299
508239 195730
997291 562245
549821 981640
867116 986612
941245 151013
972280 13256
943837 290155
331393 904816
558946 560475
390792 894359
471205 439641
326784 914942
37456 74870
146548 951014
721323 405703
892097 319695
941478 721783
463184 501144
495791 12213
552864 379425
18121 548376
898938 580775
827967 749888
230509 324927
772565 82120
604268 405916
518782 364437
598280 141700
586056 467539
934734 527257
49775 549972
486854 695558
253405 900740
59136 535952
873582 590424
446958 687066
365505 438333
631501 609486
722702 163781
149803 290989
981783 122046
182824 35209
152356 552802
708542 299780
515388 438744
815470 528461
879092 634513
572231 568250
67692 405314
280333 224799
445327 919955
245207 168215
890921 268408
332443 250732
618131 881676
201180 686507
614129 814833
94140 508902
106104 648501
599038 468561
51786 449264
326146 972117
807786 566333
392341 780845
71976 419111
445044 142875
236027 280426
508999 563000
195458 488422
278148 54765
232799 465170
427225 177698
968636 572547
800103 284035
573232 581538
752240 907171
244960 635318
827299 171428
492728 14370
285333 981742
976444 862066
611456 748447
620377 389809
560144 871088
174117 673051
67949 192808
114272 939609
684869 508451
203710 886390
473223 99291
997998 822666
746823 789644
39672 142167
5392 335726
519016 24622
47145 334018
723005 415464
345486 218448
372777 956255
829338 602654
93945 443670
654281 758581
694596 579827
282514 489706
950209 98439
192240 319528
310137 884538
830338 207111
843423 33844
504883 17001
241676 167290
937535 483407
424698 69306
385021 14449
866958 556830
259281 525512
92299 43618
698584 487978
151292 365796
456764 117539
58560 89399
422104 71784
292511 178462
96100 571013
109219 850885
482903 65664
957254 851039
207767 123546
264303 296026
158009 183135
941007 340056
484713 380176
949827 820867
605602 336053
333344 406039
282846 923866
689642 550461
876944 93674
671438 794629
765187 230533
135637 696481
109390 473134
11756 457499
974717 561603
259304 949023
14606 977086
785602 791916
595430 234169
630046 543409
958677 248903
173575 348671
66951 980961
568137 718664
498678 970162
227811 196551
309611 560245
501599 2399
965983 248878
640138 150142
964671 904094
287438 990067
265092 148569
952008 595962
355844 60472
915950 917040
102211 142982
577542 321887
322280 834184
849067 783142
981644 116888
854381 65652
700315 31899
893349 864959
641133 937811
332420 635437
54084 284979
968509 946719
329233 356438
716414 629403
61639 658308
586717 320612
969648 529626
559777 412874
617796 767013
765021 776017
389238 807357
289672 521910
546641 825926
423420 834274
773921 65748
781848 547982
707905 300528
51053 346145
796008 36056
455389 537125
4560 201322
890590 534824
399765 411100
534423 961561
81322 647611
270151 726978
116238 844003
430790 895924
757864 208025
542076 63403
516538 942893
2808 295915
116883 289604
358591 662473
709230 92628
424203 228361
534064 659642
122810 960339
616348 74679
258816 542499
841919 186059
496256 541137
363797 734941
133842 761506
61139 312971
645408 399057
640145 273977
136439 111346
418115 757145
884417 167379
44047 32352
619771 285296
445822 362031
678511 909583
397920 799869
485600 786266
829894 375333
360893 981280
