327942 624574 470
932244 455726 525
672114 244222 509
296183 722101 509
217802 199064 386
685172 12720 509
576618 393063 470
628828 453675 509
683414 28247 509
480088 680302 509
37565 585051 470
785073 849896 525
80514 412941 449
750859 710855 424
169277 330182 443
159942 136619 383
640221 285460 509
339172 173922 443
679305 757603 504
728362 390529 509
532025 44779 470
355702 166350 443
587552 62390 470
575464 93686 470
911297 469157 525
970007 393699 525
739160 718679 424
876821 836965 525
755244 752423 424
325015 954825 525
713055 84022 509
576974 768629 509
984235 610360 525
377457 416385 449
723445 338755 509
95972 544854 470
344769 454919 449
892360 157460 525
747508 282053 509
870330 901200 445
179814 685077 509
482664 716617 509
98142 904520 525
705266 657910 504
152013 609 375
229634 849625 525
405630 904005 525
742102 361828 509
8209 155673 375
94360 606829 470
510958 580431 470
103187 910525 525
237181 379772 441
284263 821831 509
49964 497320 449
838075 539596 525
900724 561343 525
468172 285557 449
607974 246189 470
244981 175360 443
142881 811753 509
708268 67436 509
186724 675138 509
523406 740748 509
522666 664524 509
35407 536036 470
411931 253170 449
948462 416913 525
488678 327942 449
686675 807925 504
22248 412401 449
933776 509300 525
394772 362902 436
625159 430257 470
599181 798713 509
490503 466015 413
856311 781723 525
644365 344028 509
806105 607309 509
454283 949487 525
51315 17191 324
819744 29920 509
459741 855023 525
976486 577758 525
999780 39292 525
123279 679187 509
601114 93498 470
873120 563682 525
739647 202883 509
848941 383619 525
986847 956895 458
772309 598295 509
16149 357897 443
579549 334928 470
804639 491771 509
366209 299840 441
217681 453221 449
249048 175191 443
260133 901781 525
491430 361771 449
130417 471109 449
29074 339931 443
684650 897287 525
828602 799059 450
283513 423500 449
581818 945633 525
676890 517088 509
103634 527573 470
246589 81285 443
136793 917386 525
98592 448463 449
189051 712295 509
784909 541577 509
501715 585043 470
346569 454105 449
338082 875602 525
468482 758183 509
533079 297911 470
282066 23876 443
535348 325305 470
336007 776381 509
555715 501369 470
157054 667491 509
653596 130494 509
392454 644192 509
20930 212527 383
691763 789233 504
252988 563693 470
446710 649087 509
33772 254506 443
566793 516046 452
513681 897069 525
268642 979777 525
210240 412927 449
770995 157356 509
186882 928013 525
879680 502996 525
948928 725590 525
53221 410677 449
923970 300712 525
96404 610411 470
404631 779530 509
807349 202574 509
881189 432122 525
383795 619894 470
790880 168270 509
540057 176969 470
654630 522809 509
321829 906073 525
682402 543362 509
634410 725935 504
2393 442453 449
885717 153685 525
21734 174116 383
630453 565343 509
36689 276977 443
511969 206435 470
761258 770591 468
410613 68700 449
812580 198693 509
61316 767047 509
535994 352928 470
949806 822816 525
278022 40187 443
804535 751055 468
282983 540247 470
845836 890648 445
948965 961486 414
545293 458038 470
789980 851276 525
956353 987733 458
727627 727919 318
126656 780498 509
578133 271291 470
830293 798625 450
444773 914501 525
995847 65184 525
12623 267406 443
497883 832765 509
28946 767544 509
550522 344205 470
11321 653829 509
220129 350802 443
341622 53457 443
177590 742765 509
182996 610852 470
624984 659932 509
101677 699625 509
6248 84627 351
540128 61258 470
953070 329833 525
726709 451717 509
383863 304722 441
130335 928218 525
670566 862639 525
112979 280837 443
172195 41944 383
503720 975477 525
269160 332245 407
107864 913404 525
918919 121174 525
330429 559809 470
253398 372585 441
731461 561823 509
612459 46282 470
118819 898922 525
523851 170449 470
438825 199961 449
982067 857835 507
897311 926532 476
33961 639322 509
690030 521941 509
973157 83648 525
719635 298426 509
246731 57104 443
985609 622635 525
829250 308519 509
177629 240850 443
137466 168254 383
158699 411458 449
70092 451910 449
331233 969435 525
283487 463227 449
421154 329765 449
177193 191196 365
700959 24950 509
517470 40848 470
953382 174654 525
119916 253537 443
961259 85629 525
214895 637989 509
677121 933190 525
436659 608934 470
957869 430897 525
463948 672015 509
779653 774639 437
791828 917722 525
334163 581791 470
279153 823990 509
121456 277978 443
195536 923041 525
617297 782801 509
920929 923262 445
61510 210289 383
492171 756996 509
957582 144778 525
970089 343914 525
464138 129112 449
768506 901889 525
566213 130964 470
515777 757121 509
502773 892166 525
331594 271873 389
334686 670669 509
585424 754799 509
160064 272138 443
428592 51058 449
130303 668227 509
368501 641632 509
545249 249383 470
654621 731420 504
