270099 185232 443
403552 660680 509
825331 112117 509
412589 506652 444
315667 778036 509
687542 791605 504
922526 445456 525
745912 746080 287
171373 597759 470
775925 833801 468
279375 814573 509
981793 85969 525
441210 308201 449
244889 918937 525
979978 50736 525
966517 29864 525
417400 26709 449
617009 731387 509
911880 151565 525
986880 879354 507
997724 674530 525
300236 666976 509
903918 250928 525
545819 255365 470
808558 788646 468
321502 949976 525
710778 896000 525
92030 516335 470
457227 519803 470
426762 93125 449
783804 589158 509
310220 774156 509
464339 191899 449
701086 196532 509
475462 733804 509
511703 128116 449
134028 360081 443
213066 641347 509
942838 571151 525
566728 885007 525
474692 379175 449
446229 739885 509
256529 17422 443
761687 859851 525
681687 424412 509
990239 796677 525
158952 6686 383
759384 945709 525
743339 596318 509
729737 118347 509
798457 711164 468
562469 468330 470
552970 425394 470
50447 696202 509
56741 796138 509
828345 375245 509
213997 541523 470
102448 980337 525
685004 355837 509
865330 4057 525
172019 424028 449
595185 87830 470
762067 26584 509
532912 891710 525
932913 282153 525
71823 280913 443
751341 211483 509
827296 674656 504
772175 602512 509
214463 215510 280
537312 722287 509
674171 131564 509
587224 234885 470
147061 605902 470
893008 620083 525
270841 468364 449
625397 191647 470
29993 707042 509
852284 403369 525
497571 906266 525
874161 855388 432
786043 668629 504
629208 461458 509
160266 648528 509
925939 586231 525
762781 839521 525
286037 358657 441
239852 497773 449
456966 339711 449
542655 27786 470
194550 832232 509
501082 474252 426
759367 505260 509
847995 881692 432
689755 287000 509
149327 969032 525
63905 398309 443
36923 493095 449
773392 240803 509
680740 466078 509
336974 364845 441
914927 536651 525
477832 877176 525
309715 544909 470
97843 175595 383
702423 944285 525
508363 874786 525
167356 849605 525
904284 75613 525
308084 611809 470
108776 974475 525
619313 820859 509
67188 875751 525
541348 618804 452
901156 496293 525
660152 514598 509
799190 830787 450
949127 471353 525
466697 794204 509
567538 516625 452
682120 26471 509
119711 552462 470
245813 552968 470
175925 453714 449
433418 254278 449
273376 822074 509
576075 369191 470
419566 97006 449
171987 472588 449
952945 982896 458
163998 470073 449
94287 482300 449
467302 80889 449
124687 568503 470
462126 836150 509
165381 488692 449
633951 262491 509
600642 755021 509
121264 711162 509
499063 263085 449
611970 558992 434
823926 318576 509
165439 170805 352
651424 104593 509
934345 10657 525
249175 151818 443
482354 230409 449
101930 43898 351
209317 71202 383
25970 335769 443
28322 188389 383
652634 276509 509
425326 502259 444
471068 760128 509
215038 139407 383
670900 570359 509
272914 559736 470
463561 66064 449
137747 954454 525
524710 667521 509
945871 793375 525
89218 627178 509
147402 567784 470
607656 527455 452
57430 714188 509
894660 313879 525
335695 965248 525
838499 792912 525
962296 480722 525
726094 14403 509
285612 985498 525
129267 292085 443
959490 640032 525
922833 108526 525
774047 308057 509
951557 295842 525
596745 712245 509
99609 155372 375
126797 258665 443
487551 464664 413
535345 815827 509
692244 473415 509
166588 968591 525
229808 867074 525
201310 794308 509
798324 165603 509
103966 912025 525
554076 229724 470
296549 57842 443
950109 480014 525
822596 324981 509
471869 312774 449
439525 501766 444
658626 251759 509
583094 803792 509
393952 768812 509
786350 567174 509
25034 835158 509
159084 726446 509
695466 286406 509
779759 553770 509
420830 855092 525
345613 209210 443
480772 955831 525
80409 492442 449
875253 537472 525
469982 339269 449
665809 481284 509
404513 491624 449
222571 752049 509
135816 207745 383
105419 16711 351
372151 227056 443
117168 338169 443
671880 49954 509
724162 279996 509
912850 746823 525
906462 82225 525
23673 260235 443
575279 890947 525
224590 461702 449
216005 356901 443
313866 814679 509
457324 409757 449
842578 609705 525
37658 873677 525
360865 268590 441
844228 309179 525
646948 702318 442
367939 331679 441
299570 273741 389
546195 804382 509
479958 459004 444
748186 980698 525
949343 910196 507
651769 248872 509
477212 854558 525
938421 528155 525
758286 398253 509
817637 338024 509
640414 23101 509
482054 684891 509
867124 412377 525
284532 327249 389
169249 227746 386
670291 359644 509
795038 590549 509
405924 322805 441
491774 202339 449
688028 57943 509
219408 567030 470
861236 97162 525
953453 793581 525
35058 686807 509
